%YAML 1.1
%TAG !u! tag:unity3d.com,2011:
--- !u!114 &11400000
MonoBehaviour:
  m_ObjectHideFlags: 0
  m_PrefabParentObject: {fileID: 0}
  m_PrefabInternal: {fileID: 0}
  m_GameObject: {fileID: 0}
  m_Enabled: 1
  m_EditorHideFlags: 0
  m_Script: {fileID: 11500000, guid: 94ab0ea43bce87844ab36f3b5205d20b, type: 3}
  m_Name: Level-1-Resource-Unit
  m_EditorClassIdentifier: 
  name: 
  baseMinimum: 0
  baseMaximum: 0
  regenerationPerSecond: 0
  type: 0
