%YAML 1.1
%TAG !u! tag:unity3d.com,2011:
--- !u!114 &11400000
MonoBehaviour:
  m_ObjectHideFlags: 0
  m_PrefabParentObject: {fileID: 0}
  m_PrefabInternal: {fileID: 0}
  m_GameObject: {fileID: 0}
  m_Enabled: 1
  m_EditorHideFlags: 0
  m_Script: {fileID: 11500000, guid: b74086c49300aff48880cc3766e575e8, type: 3}
  m_Name: SimplePerformanceSpell
  m_EditorClassIdentifier: 
  name: Range Boost
  unlocked: 0
  baseCost: 15
  description: 
  defaultSprite: {fileID: 21300000, guid: a27f311d9fe475b4a9572816cbf359d0, type: 3}
  cardSprite: {fileID: 21300000, guid: a27f311d9fe475b4a9572816cbf359d0, type: 3}
  colliderOffset: {x: 0, y: 0}
  colliderSize: {x: 0, y: 0}
  spriteScale: {x: 0, y: 0, z: 0}
  baseRadius: 2
  baseSpeed: 50
  prefab: {fileID: 1737356780421164, guid: a481fc4a8ffb64d4c907b2cb981ff88b, type: 2}
  affectedLayers: 00000000
  duration: 0
  affectedTypes: 02000000
  amount: 3
