%YAML 1.1
%TAG !u! tag:unity3d.com,2011:
--- !u!114 &11400000
MonoBehaviour:
  m_ObjectHideFlags: 0
  m_PrefabParentObject: {fileID: 0}
  m_PrefabInternal: {fileID: 0}
  m_GameObject: {fileID: 0}
  m_Enabled: 1
  m_EditorHideFlags: 0
  m_Script: {fileID: 11500000, guid: f984eef11f8e3454a806e8a3c8eb873f, type: 3}
  m_Name: Rock_Elemental
  m_EditorClassIdentifier: 
  name: Rock Elemental
  unlocked: 0
  baseCost: 4
  description: 
  defaultSprite: {fileID: 21300000, guid: c51eeafbfa0f58c48a429a30746ce1e7, type: 3}
  cardSprite: {fileID: 21300000, guid: 1a7969c208c29ac4d8f8f88f26c9381c, type: 3}
  colliderOffset: {x: -7.6, y: 0}
  colliderSize: {x: 18.2, y: 20.5}
  spriteScale: {x: 0.2, y: 0.2, z: 1}
  baseHealthPoints: 500
  baseAttackPoints: 50
  baseMovementSpeed: 2
  baseAttackRange: 2
  baseAttackSpeed: 1
  healthbar: {fileID: 11400000, guid: 726399ebc6599584aa95e4f82eb73dae, type: 2}
  prefab: {fileID: 1065012233771874, guid: e80f55aa33cf0fa46916df881beb4f15, type: 2}
