%YAML 1.1
%TAG !u! tag:unity3d.com,2011:
--- !u!114 &11400000
MonoBehaviour:
  m_ObjectHideFlags: 0
  m_PrefabParentObject: {fileID: 0}
  m_PrefabInternal: {fileID: 0}
  m_GameObject: {fileID: 0}
  m_Enabled: 1
  m_EditorHideFlags: 0
  m_Script: {fileID: 11500000, guid: f984eef11f8e3454a806e8a3c8eb873f, type: 3}
  m_Name: Elite Rat
  m_EditorClassIdentifier: 
  name: Elite Rat
  unlocked: 0
  baseCost: 25
  description: 
  defaultSprite: {fileID: 21300000, guid: 49b9a8ba946319946b57f9bcb4e28253, type: 3}
  cardSprite: {fileID: 21300000, guid: 1e63c28aff87cb04abc83f4569bc46ca, type: 3}
  colliderOffset: {x: 0.3, y: 0}
  colliderSize: {x: 1.6, y: 2.8}
  spriteScale: {x: 1, y: 1, z: 1}
  baseHealthPoints: 750
  baseAttackPoints: 150
  baseMovementSpeed: 1
  baseAttackRange: 1
  baseAttackSpeed: 1
  healthbar: {fileID: 11400000, guid: 726399ebc6599584aa95e4f82eb73dae, type: 2}
  prefab: {fileID: 1065012233771874, guid: e80f55aa33cf0fa46916df881beb4f15, type: 2}
